Exploração e Estatística Descritiva
…
#inspectdf::
youtube %>% inspectdf::inspect_types()
## # A tibble: 4 × 4
##   type             cnt  pcnt col_name    
##   <chr>          <int> <dbl> <named list>
## 1 character         10    40 <chr [10]>  
## 2 logical            7    28 <chr [7]>   
## 3 numeric            7    28 <chr [7]>   
## 4 POSIXct POSIXt     1     4 <chr [1]>

youtube %>% inspectdf::inspect_na()
## # A tibble: 25 × 3
##    col_name         cnt  pcnt
##    <chr>          <int> <dbl>
##  1 thumbnail        129 52.2 
##  2 description       50 20.2 
##  3 comment_count     25 10.1 
##  4 like_count        22  8.91
##  5 dislike_count     22  8.91
##  6 kind              16  6.48
##  7 etag              16  6.48
##  8 view_count        16  6.48
##  9 favorite_count    16  6.48
## 10 published_at      16  6.48
## # … with 15 more rows
…
