Análise Exploratória de Dados
…
Bem como recursos sobre os dados faltantes por coluna:

youtube %>% inspectdf::inspect_na()
## # A tibble: 25 × 3
##    col_name         cnt  pcnt
##    <chr>          <int> <dbl>
##  1 thumbnail        129 52.2 
##  2 description       50 20.2 
##  3 comment_count     25 10.1 
##  4 like_count        22  8.91
##  5 dislike_count     22  8.91
##  6 kind              16  6.48
##  7 etag              16  6.48
##  8 view_count        16  6.48
##  9 favorite_count    16  6.48
## 10 published_at      16  6.48
## # … with 15 more rows
…
Medidas de Dispersão (absoluta): variância (σ²), desvio padrão (σ) e
amplitude interquartil (IQR)

Medidas de Dispersão (relativa): coeficiente de variação (CV)

Medidas de Forma: curtose e assimetria

Medidas de Dependência: covariância (cov) e correlação (usualmente r
ou ρ)

E para discutir melhor estes grupos, vamos considerar as colunas
numéricas da base de comerciais do Super Bowl:

youtube %>% select(where(is.numeric)) 
## # A tibble: 247 × 7
##     year view_count like_count dislike_count favorite_count comment_co…¹ categ…²
##    <dbl>      <dbl>      <dbl>         <dbl>          <dbl>        <dbl>   <dbl>
##  1  2018     173929       1233            38              0           NA       1
##  2  2020      47752        485            14              0           14      27
##  3  2006     142310        129            15              0            9      17
##  4  2018        198          2             0              0            0      22
##  5  2003      13741         20             3              0            2      24
##  6  2020      23636        115            11              0           13       1
##  7  2020     304254       1470           384              0          227      24
##  8  2020      17892         78             6              0            6       2
##  9  2020      38385        342             7              0           30      24
## 10  2020        782          7             0              0            0      24
## # … with 237 more rows, and abbreviated variable names ¹​comment_count,
## #   ²​category_id
…
